…
``` r
countryGHG0 <- rename(countryGHG, "totalGHGemissions" = "Total.GHG.Emissions.Excluding.LUCF..MtCO2e.", "totalGHGemissionsLUCF" = "Total.GHG.Emissions.Including.LUCF..MtCO2e.", "totalCO2" = "Total.CO2..excluding.LUCF...MtCO2e.", "totalCH4" = "Total.CH4..MtCO2e.", "totalN2O" = "Total.N2O..MtCO2e.", "totalFgas" = "Total.F.Gas..MtCO2e.", "energy" = "Energy..MtCO2e.", "industrialprocesses" = "Industrial.Processes..MtCO2e.", "Solvent" = "Solvent.and.Other.Product.Use..MtCO2e.", "agriculture" = "Agriculture..MtCO2e.", "waste" = "Waste..MtCO2e.", "LUCF" = "Land.Use.and.Forestry..Net.Forest.Conversion...MtCO2e.", "energyindustries" = "Energy.Industries..MtCO2e.", "ManuIndusConst" = "Manufacturing.Industries.and.Construction..MtCO2e.", "transport" = "Transport..MtCO2e.", "othersectors" = "Other.Sectors..MtCO2e.", "energyother" = "Energy...Other..MtCO2e.", "fugitiveemissions" = "Fugitive.Emissions.from.Fuels..MtCO2e.")
```

``` r
countryGHG1 <- countryGHG0 %>%
  group_by(Year, Country) 
countryGHG1
```

    ## # A tibble: 968 x 20
    ## # Groups:   Year, Country [968]
    ##    Country  Year totalGHGemissio… totalGHGemissio… totalCO2 totalCH4 totalN2O
    ##    <chr>   <int>            <dbl>            <dbl>    <dbl>    <dbl>    <dbl>
    ##  1 Austra…  1990           418.             524.     278.    116.      18.4  
    ##  2 Austria  1990            78.2             68.2     62.1     8.30     6.20 
    ##  3 Belarus  1990           139.             111.     104.     15.2     20.1  
    ##  4 Belgium  1990           143.             142.     119.      9.71    10.9  
    ##  5 Bulgar…  1990           110.              95.5     80.2    17.0     12.3  
    ##  6 Canada   1990           591.             529.     459.     72.0     49.1  
    ##  7 Croatia  1990            31.6             25.2     23.3     3.42     3.94 
    ##  8 Cyprus   1990             6.09             5.95     4.92    0.719    0.450
    ##  9 Czech …  1990           196.             192.     165.     17.8     13.3  
    ## 10 Denmark  1990            70.1             75.6     54.1     6.07     9.83 
    ## # … with 958 more rows, and 13 more variables: totalFgas <dbl>, energy <dbl>,
    ## #   industrialprocesses <dbl>, Solvent <dbl>, agriculture <dbl>, waste <dbl>,
    ## #   LUCF <dbl>, energyindustries <dbl>, ManuIndusConst <dbl>, transport <dbl>,
    ## #   othersectors <dbl>, energyother <dbl>, fugitiveemissions <dbl>
…
``` r
percent3 <- percent %>% group_by(Country) %>% summarize(mean = mean(percentco2), na.rm=TRUE)
```

    ## `summarise()` ungrouping output (override with `.groups` argument)

``` r
percent3
```

    ## # A tibble: 44 x 3
    ##    Country         mean na.rm
    ##    <chr>          <dbl> <lgl>
    ##  1 Australia      0.708 TRUE 
    ##  2 Austria        0.828 TRUE 
    ##  3 Belarus        0.686 TRUE 
    ##  4 Belgium        0.856 TRUE 
    ##  5 Bulgaria       0.772 TRUE 
    ##  6 Canada         0.781 TRUE 
    ##  7 Croatia        0.754 TRUE 
    ##  8 Cyprus         0.831 TRUE 
    ##  9 Czech Republic 0.856 TRUE 
    ## 10 Denmark        0.803 TRUE 
    ## # … with 34 more rows
…
``` r
percent2 <- percent1 %>% group_by(Country) %>% summarize(mean = mean(percentch4), na.rm=TRUE)
```

    ## `summarise()` ungrouping output (override with `.groups` argument)

``` r
percent2
```

    ## # A tibble: 44 x 3
    ##    Country          mean na.rm
    ##    <chr>           <dbl> <lgl>
    ##  1 Australia      0.235  TRUE 
    ##  2 Austria        0.0816 TRUE 
    ##  3 Belarus        0.145  TRUE 
    ##  4 Belgium        0.0560 TRUE 
    ##  5 Bulgaria       0.139  TRUE 
    ##  6 Canada         0.131  TRUE 
    ##  7 Croatia        0.113  TRUE 
    ##  8 Cyprus         0.108  TRUE 
    ##  9 Czech Republic 0.0801 TRUE 
    ## 10 Denmark        0.0821 TRUE 
    ## # … with 34 more rows
…
``` r
percent5 <- percent4 %>% group_by(Country) %>% summarize(mean = mean(percentn2o), na.rm=TRUE)
```

    ## `summarise()` ungrouping output (override with `.groups` argument)

``` r
percent5
```

    ## # A tibble: 44 x 3
    ##    Country          mean na.rm
    ##    <chr>           <dbl> <lgl>
    ##  1 Australia      0.0478 TRUE 
    ##  2 Austria        0.0721 TRUE 
    ##  3 Belarus        0.169  TRUE 
    ##  4 Belgium        0.0698 TRUE 
    ##  5 Bulgaria       0.0872 TRUE 
    ##  6 Canada         0.0735 TRUE 
    ##  7 Croatia        0.123  TRUE 
    ##  8 Cyprus         0.0591 TRUE 
    ##  9 Czech Republic 0.0595 TRUE 
    ## 10 Denmark        0.106  TRUE 
    ## # … with 34 more rows
…
